,manip,sequence,temps_expo_(min),Reponse_moyenne_(deg),DADT_moy_(deg/min),DLDT_moy_(pixel/min),Rayon_(pixel)
0,20-01-2014,1,10,14.892076034809467,0.324065,0.089551,4.1152247265
1,20-01-2014,2,10,16.937457333150093,0.391664,0.095161,4.1152247265
2,22-01-2014,1,15,36.30231909898942,0.504919,0.054622,3.927175
3,22-01-2014,2,15,24.241145816951057,0.318701,0.051631,3.927175
4,22-01-2014,3,15,19.328062130120585,0.115097,0.023386,3.927175
5,02-02-2015,1,15,24.65065590776075,0.501788,0.089463,4.394927
6,02-02-2015,2,15,25.455599435240476,0.743061,0.12829,4.394927
7,04-02-2015,1,5,6.204620179151611,0.091344,0.065866,4.474005
8,04-02-2015,2,5,5.348362943497601,0.074981,0.062723,4.474005
9,06-02-2015,1,25,51.62230734196741,0.697976,0.058605,4.334426
10,09-02-2014,1,3,15.652221524458625,0.262304,0.073655,4.395146
11,09-02-2014,2,3,6.466306003772061,0.087368,0.059384,4.395146
12,12-02-2014,1,2,14.535870511927676,0.15178,0.046237,4.428087
13,11-05-2015,1,20,54.50003332774521,0.497829,0.03995,4.37354258479
14,26-05-2015,1,35,34.48534848383352,0.495895,0.060587,4.21331896589
15,02-06-2015,1,30,30.426747927879234,0.601492,0.082341,4.16525714578
16,03-06-2015,1,20,39.21425750529566,0.479932,0.05257,4.29538667364
17,09-06-2015,1,12,28.12060261307871,0.325596,0.0489,4.22332420478
18,17-06-2015,1,8,23.468415370968327,0.247383,0.042117,3.99550191476
19,29-06-2015,1,13,23.449728039275612,0.359509,0.061246,3.99489871879
20,07-07-2015,1,7,19.372037077593994,0.178662,0.03701,4.01293555564
21,15-07-2015,1,3,17.08571694938023,0.156408,0.037253,4.06944794074
22,15-07-2015,23,3,18.05614868517494,0.068494,0.015437,4.06944794074
23,07-09-2015,1,3,21.15579005050865,0.187536,0.037265,4.2038356168
24,07-09-2015,2,3,11.283172149887292,0.144113,0.053693,4.2038356168
